第 7 章 毒蘑菇分析 | Kaggle数据项目实战
…
# length()计算因子水平个数
mushrooms_factor <- mushrooms %>% 
  mutate(across(everything(), factor)) %>% 
  as_tibble() %>% 
  janitor::clean_names()
df1 <- map_dfr(mushrooms_factor, function(x){
  length(levels(x))
}) %>% 
  as.tibble() %>% 
  pivot_longer(cols = everything(),
               names_to = "Factors",
               values_to = "Total_Class")
df1

## # A tibble: 23 x 2
##    Factors         Total_Class
##    <chr>                 <int>
##  1 class                     2
##  2 cap_shape                 6
##  3 cap_surface               4
##  4 cap_color                10
##  5 bruises                   2
##  6 odor                      9
##  7 gill_attachment           2
##  8 gill_spacing              2
##  9 gill_size                 2
## 10 gill_color               12
## # ... with 13 more rows
…
