…
```
## # A tibble: 23 x 2
##    Factors         Total_Class
##    <chr>                 <int>
##  1 class                     2
##  2 cap_shape                 6
##  3 cap_surface               4
##  4 cap_color                10
##  5 bruises                   2
##  6 odor                      9
##  7 gill_attachment           2
##  8 gill_spacing              2
##  9 gill_size                 2
## 10 gill_color               12
## # ... with 13 more rows
```
…
