…
order列包括了数字0~4，是否代表了演员在这部电影里的番位？在`超体（Lucy）`中，寡姐是无可争议的第一番位，我们来验证下。


```r
cast %>%
  filter(title == "Lucy") %>%
  select(title, order, actor, character) %>%
  arrange(order)
```

```
## # A tibble: 59 x 4
##    title order actor                character              
##    <fct> <int> <fct>                <fct>                  
##  1 Lucy      0 Scarlett Johansson   Lucy Miller            
##  2 Lucy      1 Morgan Freeman       Professor Samuel Norman
##  3 Lucy      2 Choi Min-sik         Mr. Jang               
##  4 Lucy      3 Amr Waked            Pierre Del Rio         
##  5 Lucy      4 Julian Rhind-Tutt    The Limey              
##  6 Lucy      5 Pilou Asb<U+00E6>k          Richard                
##  7 Lucy      6 Analeigh Tipton      Caroline               
##  8 Lucy      7 Nicolas Phongpheth   Jii                    
##  9 Lucy      8 Jan Oliver Schroeder German Mule            
## 10 Lucy      9 Luca Angeletti       Italian Mule           
## # ... with 49 more rows
```
…
最后，我们将演员数据和最初的电影数据合并。


```r
movies <- left_join(movies,
  cast %>%
    select(id = movie_id, actor_1, actor_2, actor_3),
  by = "id"
)
movies
```

```
## # A tibble: 4,803 x 26
##       budget genres         homepage     id keywords original_langua~
##        <dbl> <chr>          <chr>     <dbl> <chr>    <chr>           
##  1 237000000 "[{\"id\": 28~ http://~  19995 "[{\"id~ en              
##  2 300000000 "[{\"id\": 12~ http://~    285 "[{\"id~ en              
##  3 245000000 "[{\"id\": 28~ http://~ 206647 "[{\"id~ en              
##  4 250000000 "[{\"id\": 28~ http://~  49026 "[{\"id~ en              
##  5 260000000 "[{\"id\": 28~ http://~  49529 "[{\"id~ en              
##  6 258000000 "[{\"id\": 14~ http://~    559 "[{\"id~ en              
##  7 260000000 "[{\"id\": 16~ http://~  38757 "[{\"id~ en              
##  8 280000000 "[{\"id\": 28~ http://~  99861 "[{\"id~ en              
##  9 250000000 "[{\"id\": 12~ http://~    767 "[{\"id~ en              
## 10 250000000 "[{\"id\": 28~ http://~ 209112 "[{\"id~ en              
## # ... with 4,793 more rows, and 20 more variables:
## #   original_title <chr>, overview <chr>, popularity <dbl>,
## #   production_companies <chr>, production_countries <chr>,
## #   release_date <date>, revenue <dbl>, runtime <dbl>,
## #   spoken_languages <chr>, status <chr>, tagline <chr>,
## #   title <chr>, vote_average <dbl>, vote_count <dbl>,
## #   genre_1 <fct>, genre_2 <fct>, genre_3 <fct>, actor_1 <fct>, ...
```
…
我们来看看一个职员在一部电影中具体能做啥。


```r
crew %>%
  filter(crew == "Quentin Tarantino")
```

```
## # A tibble: 32 x 7
##    movie_id title               department gender cres_id job   crew 
##       <dbl> <fct>               <fct>       <int>   <int> <fct> <fct>
##  1    68718 Django Unchained    Directing       2     138 Dire~ Quen~
##  2    68718 Django Unchained    Writing         2     138 Writ~ Quen~
##  3    16869 Inglourious Baster~ Directing       2     138 Dire~ Quen~
##  4    16869 Inglourious Baster~ Writing         2     138 Writ~ Quen~
##  5   273248 The Hateful Eight   Directing       2     138 Dire~ Quen~
##  6   273248 The Hateful Eight   Writing         2     138 Writ~ Quen~
##  7       24 Kill Bill: Vol. 1   Directing       2     138 Dire~ Quen~
##  8       24 Kill Bill: Vol. 1   Writing         2     138 Char~ Quen~
##  9       24 Kill Bill: Vol. 1   Writing         2     138 Writ~ Quen~
## 10      393 Kill Bill: Vol. 2   Directing       2     138 Dire~ Quen~
## # ... with 22 more rows
```
…
