2 Olympic history | Kaggle数据项目实战
…
counts <- data %>% 
  filter(Sport != "Art Competitions") %>%  # 去掉艺术类的运动类别
  group_by(Year, Season) %>% 
  summarize(
    Athletes = length(unique(ID)),
    Nations = length(unique(NOC)),
    Events = length(unique(Event))
  )

## `summarise()` has grouped output by 'Year'. You can override using the `.groups` argument.

counts

## # A tibble: 51 x 5
## # Groups:   Year [35]
##     Year Season Athletes Nations Events
##    <int> <fct>     <int>   <int>  <int>
##  1  1896 Summer      176      12     43
##  2  1900 Summer     1224      31     90
##  3  1904 Summer      650      15     95
##  4  1906 Summer      841      21     74
##  5  1908 Summer     2024      22    109
##  6  1912 Summer     2377      27    102
##  7  1920 Summer     2665      29    153
##  8  1924 Summer     3067      44    126
##  9  1924 Winter      313      19     17
## 10  1928 Summer     2877      46    109
## # ... with 41 more rows
…
## `summarise()` has grouped output by 'Year', 'NOC'. You can override using the `.groups` argument.

names(counts_NOC)[3: 4] <- c("Male", "Female")

# 将缺失值变为0
counts_NOC$Male[is.na(counts_NOC$Male)] <- 0
counts_NOC$Female[is.na(counts_NOC$Female)] <- 0

counts_NOC$Year <- as.factor(counts_NOC$Year) # 将Year列转化为因子
counts_NOC

## # A tibble: 622 x 5
## # Groups:   Year, NOC [622]
##    Year  NOC    Male Female Total
##    <fct> <chr> <dbl>  <dbl> <int>
##  1 1936  AFG      15      0    15
##  2 1936  ARG      50      1    51
##  3 1936  AUS      29      4    33
##  4 1936  AUT     265     27   292
##  5 1936  BEL     168      8   176
##  6 1936  BER       5      0     5
##  7 1936  BOL       2      0     2
##  8 1936  BRA      67      6    73
##  9 1936  BUL      33      0    33
## 10 1936  CAN     101     25   126
## # ... with 612 more rows
…
