1 Video Games Sales | Kaggle数据项目实战
…
df_player <- df_player%>% 
  group_by(Publisher) %>% 
  summarise(count = n(),
            mean_score = mean(User_Score)) %>% 
  filter(count >= 50) %>% 
  select(Publisher, mean_score) %>% 
  arrange(desc(mean_score))
df_player

## # A tibble: 62 x 2
##    Publisher                mean_score
##    <chr>                         <dbl>
##  1 Rockstar Games                 7.84
##  2 Microsoft Game Studios         7.77
##  3 Nintendo                       7.77
##  4 Sierra Entertainment           7.72
##  5 DreamCatcher Interactive       7.71
##  6 5pb                            7.71
##  7 Sony                           7.70
##  8 Eidos Interactive              7.70
##  9 Acclaim Entertainment          7.7 
## 10 Agetec                         7.7 
## # ... with 52 more rows
…
